<svg xmlns="http://www.w3.org/2000/svg" width="284" height="339" viewBox="0 0 284 339">
    <defs>
        <linearGradient id="a" x1="24.879%" x2="94.465%" y1="83.838%" y2="9.902%">
            <stop offset="0%" stop-opacity="0"/>
            <stop offset="51.383%" stop-color="#F7704C" stop-opacity=".24"/>
            <stop offset="100%" stop-color="#F5424D"/>
        </linearGradient>
    </defs>
    <path fill="none" fill-rule="nonzero" stroke="url(#a)" d="M1502.25 513l-73.75-205-74.92 205H1281l115.893-270h64.385L1576 513h-73.75zM1361 522h131v58h-131v-58z" transform="translate(-1293 -242)"/>
</svg>
