<svg xmlns="http://www.w3.org/2000/svg" width="68" height="65" viewBox="0 0 68 65">
    <g fill="none" fill-rule="nonzero">
        <path fill="#F64F4D" stroke="#FFF" d="M12.975 33.304c.033.225.04.45.023.672.23 4.178 2.035 8.105 5.115 11.239a3 3 0 1 1-4.28 4.205C10.472 46 8.23 41.806 7.37 37.272c-2.455-.041-4.373-1.261-5.486-3.352a7.459 7.459 0 0 1-.876-2.969 3 3 0 0 1 5.986-.415c.003.04.031.177.086.331.502-5.186 2.77-9.893 6.244-13.635a11.97 11.97 0 0 1-.045-8.333c2.267-6.228 9.153-9.439 15.38-7.172A11.983 11.983 0 0 1 35.7 8.554c2.83.163 5.583.724 8.181 1.656a15.009 15.009 0 0 1 17.103-1.462 3 3 0 0 1 1.098 4.098l-4.647 8.05a23.212 23.212 0 0 1 2.682 6.005h.856a6 6 0 0 1 6 6v6a6 6 0 0 1-6 6h-3.338a24.565 24.565 0 0 1-2.662 3.6v9.272a6 6 0 0 1-6 6h-6a6 6 0 0 1-6-6v-.308a29.987 29.987 0 0 1-6 0v.308a6 6 0 0 1-6 6h-6a6 6 0 0 1-6-6 3 3 0 1 1 6 0h6v-3.837a3 3 0 0 1 3.676-2.923c1.722.398 3.507.602 5.324.602 1.817 0 3.602-.204 5.324-.602a3 3 0 0 1 3.676 2.923v3.837h6V47.318a3 3 0 0 1 .86-2.103 18.474 18.474 0 0 0 3.353-4.658 3 3 0 0 1 2.682-1.656h5.105v-6h-3.256a3 3 0 0 1-2.96-2.516c-.444-2.71-1.56-5.28-3.265-7.553a3 3 0 0 1-.198-3.3l3.835-6.643a9.003 9.003 0 0 0-8.335 2.826 3 3 0 0 1-3.446.74c-2.884-1.276-6.071-1.95-9.375-1.95-11.666 0-21 8.383-21 18.555 0 .081 0 .163.002.244zM18.553 12.9A28.39 28.39 0 0 1 28.96 8.928a6 6 0 0 0-10.407 3.97z"/>
        <path fill="#F8804B" d="M36.675 24.975h2.064c1.197 0 2.167.986 2.167 2.202s-.97 2.202-2.167 2.202h-6.4l-.034 2.202h4.302c2.366 0 4.295 1.93 4.332 4.335l.033 2.202c.038 2.432-1.871 4.434-4.264 4.472h-.033c-.01 1.208-.976 2.183-2.166 2.183s-2.156-.975-2.166-2.182h-2.167c-1.196 0-2.166-.986-2.166-2.202s.97-2.202 2.166-2.202h6.465l-.034-2.202h-4.369c-2.393-.039-4.302-2.04-4.264-4.473l.033-2.202c.037-2.405 1.966-4.335 4.332-4.335h.004c0-1.216.97-2.202 2.166-2.202s2.166.986 2.166 2.202z"/>
    </g>
</svg>
