<svg xmlns="http://www.w3.org/2000/svg" width="10" height="129" viewBox="0 0 10 129">
    <defs>
        <linearGradient id="a" x1="98.793%" x2="98.793%" y1="79.319%" y2="0%">
            <stop offset="0%" stop-color="#F9844B" stop-opacity="0"/>
            <stop offset="100%" stop-color="#F4324E"/>
        </linearGradient>
    </defs>
    <path fill="url(#a)" fill-rule="nonzero" d="M434.5 772.5V925h-1V772.5h-4v-9h9v9h-4z" transform="translate(-429 -763)"/>
</svg>
