<svg xmlns="http://www.w3.org/2000/svg" width="33" height="28" viewBox="0 0 33 28">
    <g fill="#313442" fill-rule="nonzero">
        <path d="M2.214 22.02v5.324c0 .323.261.593.59.593h4.092c.322 0 .59-.263.59-.593v-9.365l-2.972 2.989a3.595 3.595 0 0 1-2.3 1.052zM9.525 17.911v9.433c0 .323.262.593.59.593h4.092c.322 0 .59-.263.59-.593V21.79a3.556 3.556 0 0 1-2.461-1.053l-2.811-2.827zM16.836 21.204v6.14c0 .323.262.593.59.593h4.092c.322 0 .59-.263.59-.593V16.015l-4.688 4.717a3.515 3.515 0 0 1-.584.472zM29.024 9.053l-4.876 4.905v13.386c0 .323.261.593.59.593h4.092c.322 0 .59-.263.59-.593V9.424c-.134-.115-.235-.216-.308-.284l-.088-.087z"/>
        <path d="M32.372.362c-.195-.209-.49-.317-.866-.317H31.4c-1.905.088-3.803.182-5.708.27-.255.014-.604.027-.88.304a1.006 1.006 0 0 0-.207.31c-.282.614.114 1.012.302 1.201l.476.486c.329.337.664.675 1 1.005L14.87 15.206l-5.172-5.202a1.64 1.64 0 0 0-2.327 0L.483 16.926a1.66 1.66 0 0 0 0 2.341l.309.31a1.64 1.64 0 0 0 2.327 0l5.413-5.444 5.172 5.202c.308.31.724.486 1.167.486a1.65 1.65 0 0 0 1.167-.486L29.024 6.273l1.47 1.47c.174.176.415.419.784.419.154 0 .309-.04.47-.128.107-.061.2-.128.281-.21.289-.29.343-.66.356-.95.054-1.242.114-2.484.174-3.732l.088-1.869c.02-.391-.068-.695-.275-.91z"/>
    </g>
</svg>
