<svg xmlns="http://www.w3.org/2000/svg" width="24" height="16" viewBox="0 0 24 16">
    <path fill="#F5514D" fill-rule="evenodd" d="M6.532 16h4.103l-4.83-5.98H24V5.98H5.698L10.635 0H6.532L0 7.913z"/>
</svg>
